\relax 
\providecommand*\new@tpo@label[2]{}
\citation{RING}
\citation{RING}
\pgfsyspdfmark {pgfid2}{4736286}{50644704}
\gtt@chartextrasize{0}{65.04317pt}
\citation{RING}
\citation{CROSSING}
\citation{CROSSING}
\citation{CRAB}
\pgfsyspdfmark {pgfid3}{4736286}{50644704}
\@writefile{lof}{\contentsline {figure}{\numberline {1}{\ignorespaces Plot of the energy spectrum for each particle from rotational speed of 0 to $10 \pi $. In this case, $k$ is an integer value related to each respective energy level. With a barrier present, there are avoided crossings at intervals of $\pi $ that increase as a function of barrier strength.}}{2}\protected@file@percent }
\newlabel{fig:avoid}{{1}{2}}
\citation{SIMPLEX}
\citation{CRAB}
\citation{SIMPLEX}
\citation{RING}
\pgfsyspdfmark {pgfid4}{4736286}{50644704}
\@writefile{lof}{\contentsline {figure}{\numberline {2}{\ignorespaces Plot of the fidelities of each set of parameters ($N = 10$) as they converge to a value of 0.9995. The total evolution time of this simulation is 20 $\frac  {mL^2}{\pi \hbar  }$. The $\Omega (t)$ for these fidelities are shown in Figure\nobreakspace  {}\G@refundefinedtrue {\mbox  {\normalfont  \bfseries  ??}}\GenericWarning  {               }{LaTeX Warning: Reference `fig:pulse' on page 3 undefined}. The fidelity of a linear pulse is also shown. Note that the fidelity of every simplex point surpasses that of the linear pulse after roughly 100 simplex transformations.}}{3}\protected@file@percent }
\newlabel{fig:fid}{{2}{3}}
\bibcite{CRAB}{1}
\bibcite{RING}{2}
\bibcite{CROSSING}{3}
\bibcite{SIMPLEX}{4}
\bibcite{OC}{5}
\pgfsyspdfmark {pgfid5}{4736286}{50644704}
